# Max2Mtl Version 4.0 Mar 10th, 2001
#
newmtl 05_-_Default
Ka  0.6 0.6 0.6
Kd  0.6 0.6 0.6
Ks  0.9 0.9 0.9
d  1.0
Ns  0.0
illum 2
map_Kd OLDWOOD.JPG
#
newmtl old
Ka  0.6 0.6 0.6
Kd  0.6 0.6 0.6
Ks  0.9 0.9 0.9
d  1.0
Ns  0.0
illum 2
map_Kd DRIFTWD.JPG
#
newmtl 09_-_Default
Ka  0.6 0.6 0.6
Kd  0.6 0.6 0.6
Ks  0.9 0.9 0.9
d  1.0
Ns  0.0
illum 2
map_Kd OLDWOOD1.JPG
#
newmtl 08_-_Default
Ka  0.6 0.6 0.6
Kd  0.6 0.6 0.6
Ks  0.9 0.9 0.9
d  1.0
Ns  0.0
illum 2
map_Kd DRIFTWD1.JPG
#
newmtl 01_-_Default
Ka  0.6 0.6 0.6
Kd  0.6 0.6 0.6
Ks  0.9 0.9 0.9
d  1.0
Ns  0.0
illum 2
map_Kd Carpttan.jpg
#
# EOF
